{
  "builders": [{
    "type": "qemu",
    "accelerator": "kvm",
    "iso_url": "{{user `mirror`}}CentOS-Stream-8-x86_64-20210406-boot.iso",
    "iso_checksum": "{{user `iso_checksum`}}",
    "disk_image": false,
    "output_directory": "{{user `build_dir`}}",
    "vm_name": "{{user `vm_name`}}",
    "disk_size": "{{user `disk_size`}}",
    "format": "qcow2",
    "disk_compression": true,
    "headless": "{{user `headless`}}",
    "http_directory": "http",
    "boot_wait": "5s",
    "ssh_timeout": "{{user `ssh_timeout`}}",
    "ssh_username": "root",
    "ssh_password": "test",
    "shutdown_command": "sudo systemctl poweroff",
    "net_device": "virtio-net",
    "disk_interface": "virtio",
    "boot_command": [
      "<esc>",
      "<wait>linux inst.ks=http://{{.HTTPIP}}:{{.HTTPPort}}/centos/8stream-vanilla.ks<enter>"
      ],
    "qemuargs": [
      ["-m", "{{user `memory`}}"],
      ["-smp", "{{user `cpus`}}"]
    ]
  }],
  "provisioners": [{
    "type": "shell",
    "scripts": [
      "scripts/centos/grub.sh",
      "scripts/centos/cleanup.sh",
      "scripts/common/minimize.sh"
    ]
  }],
  "variables": {
    "compression_level": "6",
    "cpus": "4",
    "disk_size": "20000",
    "headless": "false",
    "iso_checksum": "1cd7303e55be201b60f21f88a65022958424ef847898afb2698532e177a27403",
    "memory": "4096",
    "mirror": "https://mirrors.edge.kernel.org/centos/8-stream/isos/x86_64/",
    "ssh_timeout": "60m",
    "vm_name": "centos-8stream-vanilla",
    "build_dir": "build/centos/8sv"
  }
}
