{
  "builders": [
    {
      "accelerator": "kvm",
      "boot_command": [
          "<wait60>",
          "root<enter>",
          "onl<enter>",
          "sudo su<enter>",
          "dhclient ma1<enter>",
          "<wait10>"
      ],
      "shutdown_command": "sudo systemctl poweroff",
      "ssh_username": "root",
      "ssh_password": "onl",
      "ssh_pty": "true",
      "ssh_timeout": "{{user `ssh_timeout`}}",
      "boot_wait": "15s",
      "disk_compression": true,
      "disk_image": true,
      "disk_interface": "virtio",
      "disk_size": "{{user `disk_size`}}",
      "format": "qcow2",
      "headless": "{{user `headless`}}",
      "http_directory": "http/dent",
      "http_port_min": "80",
      "http_port_max": "80",
      "iso_checksum": "none",
      "iso_url": "base/onie-x86-bios",
      "net_device": "virtio-net",
      "output_directory": "{{user `build_dir`}}",
      "qemuargs": [
        [
          "-m",
          "{{user `memory`}}"
        ],
        [
          "-smp",
          "{{user `cpus`}}"
        ],
        [
          "-display",
          "gtk"
        ],
        [
          "-vga",
          "cirrus"
        ]
      ],
      "type": "qemu",
      "vm_name": "{{user `vm_name`}}"
    }
  ],
  "provisioners": [
    {
      "execute_command": "{{.Vars}} echo 'CumulusLinux!' | sudo -S '{{.Path}}'",
      "scripts": [
        "scripts/dent/mgmt.sh",
        "scripts/dent/packages.sh",
        "scripts/dent/rvn.sh"
      ],
      "type": "shell"
    }
  ],
  "variables": {
    "build_dir": "build/dent/1",
    "compression_level": "6",
    "cpus": "4",
    "disk_size": "40000",
    "headless": "false",
    "iso_url": "base/dent1.img",
    "memory": "4096",
    "ssh_timeout": "60m",
    "vm_name": "dent1"
  }
}

