{
    "builders": [{
        "type": "qemu",
        "accelerator": "kvm",
        "iso_url": "base/ubuntu-18.04-server-cloudimg-amd64.img",
        "disk_image": true,
        "iso_checksum": "{{user `iso_checksum`}}",
        "iso_checksum_type": "{{user `iso_checksum_type`}}",
        "output_directory": "{{user `build_dir`}}",
        "vm_name": "{{user `vm_name`}}",
        "disk_size": "{{user `disk_size`}}",
        "format": "qcow2",
        "disk_compression": true,
        "headless": "{{user `headless`}}",
        "http_directory": "http",
        "boot_wait": "5s",
        "ssh_timeout": "{{user `ssh_timeout`}}",
        "ssh_username": "rvn",
        "ssh_password": "rvn",
        "shutdown_command": "sudo systemctl poweroff",
        "qemuargs": [
            ["-m", "{{user `memory`}}"],
            ["-smp", "{{user `cpus`}}"],
            ["-cdrom", "cloud-init/ubuntu-1604-config.iso"],
            ["-nographic"]
        ],
        "net_device": "virtio-net",
        "disk_interface": "virtio"
    }],
    "provisioners": [{
      "type": "shell",
      "execute_command": "{{.Vars}} sudo '{{.Path}}'",
      "scripts": [
        "scripts/ubuntu/wait.sh",
        "scripts/ubuntu/qemu18.sh",
        "scripts/ubuntu/netplan.sh",
        "scripts/ubuntu/no-auto-upgrades.sh",
        "scripts/common/minimize.sh"
      ]
    }],
    "variables": {
        "compression_level": "6",
        "cpus": "4",
        "disk_size": "40000",
        "iso_checksum": "f44ca592bcbdde637d818bebd21ff33f4a8ab90eae6900a08a912f966fa581fe",
        "iso_checksum_type": "sha256",
        "memory": "4096",
        "ssh_timeout": "60m",
        "headless": "true",
        "vm_name": "ubuntu-1804",
        "build_dir": "build/ubuntu/1804"
  }
}
